{
  "paths":[
    {"imgSrc":"./images/src/*"},
    {"imgDest":"./images"},
    {"svgSrc":"./images/svg-src/*"},
    {"svgDest":"./images"},
    {"sassSrc":"./scss/*.scss"},
    {"sassDest":"./css"}
  ],
  "options": [
    { "autoprefixer":"last 2 version" }
  ]
}